Parametri telecamera: x, y, z, FOW
5.023571 26.246416 10.393439 23.687172

Coordinate origine telecamera in m (easting, northing, elevation)
487477.38 4184697.77 980

Nome del file contenente i dati del DEM:
Dem_24122015_2m.bsq

Nome dell'immagine da mappare:
EBT1081.jpg
